Flask==0.12.2
Flask-Admin==1.5.0
Flask-Bootstrap==3.3.5.7
Flask-HTTPAuth==3.2.3
Flask-Login==0.2.7
Flask-RESTful==0.3.6
Flask-SQLAlchemy==2.3.2
Flask-Script==2.0.6
Flask-WTF==0.14.2
Jinja2==2.10
MarkupSafe==1.0
PyYAML==3.12
SQLAlchemy==1.2.5
WTForms==2.1
Werkzeug==0.14.1
amqp==2.2.2
aniso8601==3.0.0
apispec==0.31.0
billiard==3.5.0.3
numpy==1.14.1
biopython==1.70
celery==4.1.0
certifi==2018.01.18
chardet==3.0.4
click==6.7
dominate==2.3.1
flask-apispec==0.6.0.post0
gunicorn==19.7.1
idna==2.6
itsdangerous==0.24
kombu==4.1.0
marshmallow==2.15.0
psycopg2==2.7.4
pytz==2018.3
requests==2.18.4
six==1.11.0
ujson==1.35
urllib3==1.22
vine==1.1.4
visitor==0.1.3
webargs==2.0.0
wsgiref==0.1.2
OAuthlib==2.1.0
Flask-OAuthlib==0.9.5
Authlib==0.12.1

